# 3ds Max Wavefront OBJ Exporter v0.94b - (c)2007 guruware
# File Created: 22.11.2022 10:35:43

newmtl Steel
	Ns 10.0000
	Ni 1.5000
	d 1.0000
	Tr 1.0000
	Tf 1.0000 1.0000 1.0000 
	illum 2
	Ka 0.0000 0.0000 0.0000
	Kd 0.8471 0.7020 0.3843
	Ks 0.0000 0.0000 0.0000
	Ke 0.0000 0.0000 0.0000
	map_Kd D:\New folder 2\old_copp.jpg
